{"filesize": "", "keyword": "", "list": [{"ID": "6b75aa576b004d27a3fde4e86dc6dcc4", "EPS_NAME": "广东微研生物科技有限公司", "PRODUCT_SN": "粤妆20190296", "CITY_CODE": null, "XK_COMPLETE_DATE": {"date": 20, "day": 3, "hours": 0, "minutes": 0, "month": 0, "nanos": 0, "seconds": 0, "time": 1611072000000, "timezoneOffset": -480, "year": 121}, "XK_DATE": "2024-12-23", "QF_MANAGER_NAME": "广东省药品监督管理局", "BUSINESS_LICENSE_NUMBER": "91440606MA53LA8B1D", "XC_DATE": "2021-01-20", "NUM_": 1}, {"ID": "161e5a2dfad24acb9cafc9d7c7318da2", "EPS_NAME": "杰雅生物科技（深圳）有限公司", "PRODUCT_SN": "粤妆20210019", "CITY_CODE": null, "XK_COMPLETE_DATE": {"date": 19, "day": 2, "hours": 0, "minutes": 0, "month": 0, "nanos": 0, "seconds": 0, "time": 1610985600000, "timezoneOffset": -480, "year": 121}, "XK_DATE": "2026-01-18", "QF_MANAGER_NAME": "广东省药品监督管理局", "BUSINESS_LICENSE_NUMBER": "91440300MA5DM51T5Q", "XC_DATE": "2021-01-19", "NUM_": 2}, {"ID": "f494c47586284b17aae165678a466d1a", "EPS_NAME": "广州德贝芙生物科技有限公司", "PRODUCT_SN": "粤妆20160119", "CITY_CODE": null, "XK_COMPLETE_DATE": {"date": 19, "day": 2, "hours": 0, "minutes": 0, "month": 0, "nanos": 0, "seconds": 0, "time": 1610985600000, "timezoneOffset": -480, "year": 121}, "XK_DATE": "2026-01-18", "QF_MANAGER_NAME": "广东省药品监督管理局", "BUSINESS_LICENSE_NUMBER": "91440114MA59C14165", "XC_DATE": "2021-01-19", "NUM_": 3}, {"ID": "f63f61fe04684c46a016a45eac8754fe", "EPS_NAME": "哈尔滨圣吉药业股份有限公司", "PRODUCT_SN": "黑妆20190003", "CITY_CODE": "266", "XK_COMPLETE_DATE": {"date": 18, "day": 1, "hours": 0, "minutes": 0, "month": 0, "nanos": 0, "seconds": 0, "time": 1610899200000, "timezoneOffset": -480, "year": 121}, "XK_DATE": "2024-04-11", "QF_MANAGER_NAME": "黑龙江省食品药品监督管理局", "BUSINESS_LICENSE_NUMBER": "912301997120425839", "XC_DATE": "2021-01-18", "NUM_": 4}, {"ID": "a2ba171b7718450cbb7908ab7f093f22", "EPS_NAME": "广州婵妍生物科技有限公司", "PRODUCT_SN": "粤妆20190178", "CITY_CODE": null, "XK_COMPLETE_DATE": {"date": 12, "day": 2, "hours": 0, "minutes": 0, "month": 0, "nanos": 0, "seconds": 0, "time": 1610380800000, "timezoneOffset": -480, "year": 121}, "XK_DATE": "2024-08-30", "QF_MANAGER_NAME": "广东省药品监督管理局", "BUSINESS_LICENSE_NUMBER": "91440101MA5CQBGQ3R", "XC_DATE": "2021-01-12", "NUM_": 5}, {"ID": "cad977d0af9941cabf1ea3aa51b0aefe", "EPS_NAME": "广州函美诗生物科技有限公司", "PRODUCT_SN": "粤妆20190245", "CITY_CODE": null, "XK_COMPLETE_DATE": {"date": 5, "day": 2, "hours": 0, "minutes": 0, "month": 0, "nanos": 0, "seconds": 0, "time": 1609776000000, "timezoneOffset": -480, "year": 121}, "XK_DATE": "2024-11-03", "QF_MANAGER_NAME": "广东省药品监督管理局", "BUSINESS_LICENSE_NUMBER": "91440101MA5CM2JT0M", "XC_DATE": "2021-01-05", "NUM_": 6}, {"ID": "f15e7bf079b64b018c713f086f04bad9", "EPS_NAME": "海南卓瑞生物医药有限公司", "PRODUCT_SN": "琼妆20190009", "CITY_CODE": "311", "XK_COMPLETE_DATE": {"date": 5, "day": 2, "hours": 0, "minutes": 0, "month": 0, "nanos": 0, "seconds": 0, "time": 1609776000000, "timezoneOffset": -480, "year": 121}, "XK_DATE": "2024-11-18", "QF_MANAGER_NAME": "海南省药品监督管理局", "BUSINESS_LICENSE_NUMBER": "91469027MA5T8H6N9D", "XC_DATE": "2021-01-05", "NUM_": 7}, {"ID": "4191260b07a14f8486c8e652ba4692e9", "EPS_NAME": "宓妃（浙江省金华市）化妆品有限公司", "PRODUCT_SN": "浙妆20190039", "CITY_CODE": null, "XK_COMPLETE_DATE": {"date": 31, "day": 4, "hours": 0, "minutes": 0, "month": 11, "nanos": 0, "seconds": 0, "time": 1609344000000, "timezoneOffset": -480, "year": 120}, "XK_DATE": "2024-08-01", "QF_MANAGER_NAME": "浙江省药品监督管理局", "BUSINESS_LICENSE_NUMBER": "91330783MA2E7RJW8R", "XC_DATE": "2020-12-31", "NUM_": 8}, {"ID": "ea278b325af543998b5e0a1c2cc482ba", "EPS_NAME": "英德市藻米美妆产业有限公司", "PRODUCT_SN": "粤妆20190114", "CITY_CODE": null, "XK_COMPLETE_DATE": {"date": 31, "day": 4, "hours": 0, "minutes": 0, "month": 11, "nanos": 0, "seconds": 0, "time": 1609344000000, "timezoneOffset": -480, "year": 120}, "XK_DATE": "2024-06-05", "QF_MANAGER_NAME": "广东省药品监督管理局", "BUSINESS_LICENSE_NUMBER": "91441881MA522GUR4Q", "XC_DATE": "2020-12-31", "NUM_": 9}, {"ID": "298fccd1064e405ea004bceacc7e0401", "EPS_NAME": "四川丽妍工坊生物科技有限公司", "PRODUCT_SN": "川妆20190010", "CITY_CODE": "166", "XK_COMPLETE_DATE": {"date": 31, "day": 4, "hours": 0, "minutes": 0, "month": 11, "nanos": 0, "seconds": 0, "time": 1609344000000, "timezoneOffset": -480, "year": 120}, "XK_DATE": "2024-12-26", "QF_MANAGER_NAME": "四川省药品监督管理局", "BUSINESS_LICENSE_NUMBER": "91511402MA67CHTM0J", "XC_DATE": "2020-12-31", "NUM_": 10}, {"ID": "5b729e9fe6b94ff3b6abb38bf8324ea7", "EPS_NAME": "潮州市亿修医疗科技有限公司江东分厂", "PRODUCT_SN": "粤妆20190040", "CITY_CODE": null, "XK_COMPLETE_DATE": {"date": 29, "day": 2, "hours": 0, "minutes": 0, "month": 11, "nanos": 0, "seconds": 0, "time": 1609171200000, "timezoneOffset": -480, "year": 120}, "XK_DATE": "2024-02-26", "QF_MANAGER_NAME": "广东省药品监督管理局", "BUSINESS_LICENSE_NUMBER": "91445103MA521QJU0U", "XC_DATE": "2020-12-29", "NUM_": 11}, {"ID": "0dc5ffaa4ae3419492b78edf4d91f947", "EPS_NAME": "美尚美生物技术（广州）有限公司", "PRODUCT_SN": "粤妆20190265", "CITY_CODE": null, "XK_COMPLETE_DATE": {"date": 24, "day": 4, "hours": 0, "minutes": 0, "month": 11, "nanos": 0, "seconds": 0, "time": 1608739200000, "timezoneOffset": -480, "year": 120}, "XK_DATE": "2024-11-26", "QF_MANAGER_NAME": "广东省药品监督管理局", "BUSINESS_LICENSE_NUMBER": "91440101MA5CUTW2XB", "XC_DATE": "2020-12-24", "NUM_": 12}, {"ID": "991dbdc027354af8ba7b5aa8583bc8d1", "EPS_NAME": "重庆中佳信生物科技有限公司", "PRODUCT_SN": "渝妆20190003", "CITY_CODE": "456", "XK_COMPLETE_DATE": {"date": 24, "day": 4, "hours": 0, "minutes": 0, "month": 11, "nanos": 0, "seconds": 0, "time": 1608739200000, "timezoneOffset": -480, "year": 120}, "XK_DATE": "2024-07-01", "QF_MANAGER_NAME": "重庆市药品监督管理局", "BUSINESS_LICENSE_NUMBER": "91500119MA5XDY7980", "XC_DATE": "2020-12-24", "NUM_": 13}, {"ID": "4690bc0cd7b54b10a6b5297d98aa40d7", "EPS_NAME": "佛山市谷邦生物科技有限公司", "PRODUCT_SN": "粤妆20190007", "CITY_CODE": null, "XK_COMPLETE_DATE": {"date": 23, "day": 3, "hours": 0, "minutes": 0, "month": 11, "nanos": 0, "seconds": 0, "time": 1608652800000, "timezoneOffset": -480, "year": 120}, "XK_DATE": "2024-01-08", "QF_MANAGER_NAME": "广东省药品监督管理局", "BUSINESS_LICENSE_NUMBER": "91440605MA51M8340C", "XC_DATE": "2020-12-23", "NUM_": 14}, {"ID": "fc026ffe5f2b48cc86d2b8c85d09066d", "EPS_NAME": "麦吉尔（沈阳）药业有限公司", "PRODUCT_SN": "辽妆20190009", "CITY_CODE": "285", "XK_COMPLETE_DATE": {"date": 23, "day": 3, "hours": 0, "minutes": 0, "month": 11, "nanos": 0, "seconds": 0, "time": 1608652800000, "timezoneOffset": -480, "year": 120}, "XK_DATE": "2024-10-21", "QF_MANAGER_NAME": "辽宁省食品药品监督管理局", "BUSINESS_LICENSE_NUMBER": "91210103MA0YJQE87C", "XC_DATE": "2020-12-23", "NUM_": 15}], "orderBy": "createDate", "orderType": "desc", "pageCount": 45, "pageNumber": 1, "pageSize": 15, "property": "", "totalCount": 672}